{
  "cviceni": {
    "version": {
      "global": "<%= version %>",
      "content": 1
    },
    "katalog": [],
    "language": "cs",
    "slug": "dejiny-na-namesti",
    "nazev": "Dějiny na náměstí",
    "autor": [],
    "klicovaSlova": [],
    "anotace": {
      "ucitel": "",
      "verejna": ""
    },
    "trvani": 0,
    "funkce": [
      "lupa",
      "text",
      "svg",
      "znacky",
      "razeni"
    ],"pdf": {
      "doporucenyPostup": "dejiny-na-namesti.pdf"
    },
    "uvodniObrazek": "dejiny-na-namesti/pic-01-1280w.jpg",
    "id": 3
  },
  "slajd": [
    {
      "class": [
        "half-slide-previous"
      ],
      "zadani": {
        "hlavni": "Prohlédněte si fotografie.",
        "rozsirujici": ""
      },
      "napoveda": {
        "aktivity": [
          "lupa"
        ],
        "text": "Při kliknutí levým tlačítkem do obrazu lupa přiblíží část obrazu ve výřezu."
      },
      "prameny": [
        "dejiny-na-namesti/pic-00-1024h.jpg",
        "dejiny-na-namesti/pic-01-1280w.jpg",
        "dejiny-na-namesti/pic-02-1024h.jpg",
        "dejiny-na-namesti/pic-03-1280w.jpg"
      ],
      "popisky": [""]
    },
    {
      "class": [
        "half-slide-active"
      ],
      "zadani": {
        "hlavni": "Odpovězte na otázky.",
        "rozsirujici": ""
      },
      "napoveda": {
        "aktivity": [
          "text"
        ],
        "text": "Do boxu pro text zapisujete odpověď na otázku, nebo jiný komentář (dle zadání)."
      },
      "uzivatelskyText": {
        "otazky": [
          {
            "id": "text-0",
            "zadani": "Jaké místo je na fotografiích?",
            "instrukce": "Myslím si, že…",
            "minDelka": 2,
            "maxDelka": 400
          },
          {
            "id": "text-1",
            "zadani": "Byli jste tam někdy? Při jaké příležitosti?",
            "instrukce": "Myslím si, že…",
            "minDelka": 2,
            "maxDelka": 400
          }
        ]
      }
    },
    {
      "class": [
        ""
      ],
      "zadani": {
        "hlavni": "Odhadněte, v jaké době fotografie vznikly.",
        "rozsirujici": "V každém snímku označte dva prvky, které vám pomohou určit stáří snímku."
      },
      "napoveda": {
        "aktivity": [
          "svg"
        ],
        "text": [
          "Kliknutím na snímek levým tlačítkem myši označujete bod. Nakliknutím na bod pravým tlačítkem otevřete menu s nabídkou úkonů: změnit barvu bodu, (T) doplnit textový komentář, (X) smazat nakliknutý objekt."
        ]
      },
      "svg": {
        "soubory": [
          {
            "id": "svg-0",
            "soubor": "dejiny-na-namesti/pic-00-640w.jpg",
            "funkce": [
              "text",
              "znacky"
            ]
          },
          {
            "id": "svg-1",
            "soubor": "dejiny-na-namesti/pic-01-640w.jpg",
            "funkce": [
              "text",
              "znacky"
            ]
          },
          {
            "id": "svg-2",
            "soubor": "dejiny-na-namesti/pic-02-640w.jpg",
            "funkce": [
              "text",
              "znacky"
            ]
          },
          {
            "id": "svg-3",
            "soubor": "dejiny-na-namesti/pic-03-640w.jpg",
            "funkce": [
              "text",
              "znacky"
            ]
          }
        ]
      },
      "popisky": [
        "",
        "",
        "",
        ""
      ]
    },
    {
      "class": [
        "half-slide-previous"
      ],
      "zadani": {
        "hlavni": "Seřaďte fotografie od nejstarší k nejmladší.",
        "rozsirujici": ""
      },
      "napoveda": {
        "aktivity": [
          "razeni"
        ],
        "text": "Uchopením fotografie a jejím přetažením změníte pořadí."
      },
      "razeni": {
        "id": "razeni-1",
        "typ": "horizontalni",
        "objekty": [
          {
            "medium": "obrazek",
            "objekt": "dejiny-na-namesti/pic-00-1024h.jpg"
          },
          {
            "medium": "obrazek",
            "objekt": "dejiny-na-namesti/pic-01-1280w.jpg"
          },
          {
            "medium": "obrazek",
            "objekt": "dejiny-na-namesti/pic-02-1024h.jpg"
          },
          {
            "medium": "obrazek",
            "objekt": "dejiny-na-namesti/pic-03-1280w.jpg"
          }
        ]
      }
    },
    {
      "class": [
        "half-slide-active"
      ],
      "zadani": {
        "hlavni": "Odpovězte na otázky.",
        "rozsirujici": ""
      },
      "napoveda": {
        "aktivity": [
          "text"
        ],
        "text": "Do boxu pro text zapisujete odpověď na otázku, nebo jiný komentář (dle zadání)."
      },
      "uzivatelskyText": {
        "otazky": [
          {
            "id": "text-3",
            "zadani": "Při jakých příležitostech se lidé na Václavském náměstí schází a proč právě tam?",
            "instrukce": "Napište alespoň pět vět",
            "minDelka": 2,
            "maxDelka": 4009
          },
          {
            "id": "text-4",
            "zadani": "Znáte nějaké obdobné místo? Čím je podobné?",
            "instrukce": "(např. v okolí vaší školy, v zahraničí)",
            "minDelka": 2,
            "maxDelka": 4009
          }
        ]
      }
    }
  ]
}